<?xml version="1.0" encoding="UTF-8"?>
<svg width="35" height="30" version="1.1" viewBox="0 0 35 30" xml:space="preserve" xmlns="http://www.w3.org/2000/svg" xmlns:cc="http://creativecommons.org/ns#" xmlns:dc="http://purl.org/dc/elements/1.1/" xmlns:rdf="http://www.w3.org/1999/02/22-rdf-syntax-ns#"><metadata><rdf:RDF><cc:Work rdf:about=""><dc:format>image/svg+xml</dc:format><dc:type rdf:resource="http://purl.org/dc/dcmitype/StillImage"/><dc:title/></cc:Work></rdf:RDF></metadata>
<style type="text/css">
	.st0{fill:none;stroke:#FFFFFF;stroke-miterlimit:10;}
</style><g stroke-miterlimit="10" stroke-width="1.4">
<path class="st0" d="m31 26h-26c-1.3 0-2.3-1-2.3-2.3v-17c0-1.3 1-2.3 2.3-2.3h26c1.3 0 2.3 1 2.3 2.3v17c-0.01 1.3-1 2.3-2.3 2.3z"/>
<polyline class="st0" transform="translate(0 2.5)" points="3.2 2.6 18 13 32 2.6"/>
<line class="st0" x1="3.2" x2="15" y1="25" y2="13"/>
<line class="st0" x1="32" x2="21" y1="25" y2="13"/>
</g></svg>
